{
  "data": [
    {
      "see_all_photos": "http://www.tripadvisor.com/LocationPhotos-g60745-d3546275-mMCID-Diablo_Glass_School-Boston_Massachusetts.html",
      "attraction_types": [
        {
          "localized_name": "Classes/Workshops",
          "name": "classes/workshops"
        }
      ],
      "web_url": "http://www.tripadvisor.com/Attraction_Review-g60745-d3546275-Reviews-mMCID-Diablo_Glass_School-Boston_Massachusetts.html",
      "percent_recommended": null,
      "location_string": "Boston, Massachusetts",
      "location_id": "3546275",
      "write_review": "http://www.tripadvisor.com/UserReview-g60745-d3546275-mMCID-Diablo_Glass_School-Boston_Massachusetts.html",
      "api_detail_url": "http://api.tripadvisor.com/api/partner/2.0/location/3546275?key=<YOUR KEY HERE>",
      "address_obj": {
        "street1": "123 Terrace Street",
        "street2": null,
        "city": "Boston",
        "state": "Massachusetts",
        "country": "United States",
        "postalcode": "02120",
        "address_string": "123 Terrace Street, Boston, MA 02120"
      },
      "wikipedia_info": null,
      "distance": ".25",
      "category": {
        "name": "attraction",
        "localized_name": "Attraction"
      },
      "awards": [],
      "subcategory": [
        {
          "name": "activities",
          "localized_name": "Activities"
        },
        {
          "name": "classes",
          "localized_name": "Classes"
        }
      ],
      "num_reviews": "1",
      "rating_image_url": "http://www.tripadvisor.com/img/cdsi/img2/ratings/traveler/5.0-MCID-5.png",
      "name": "Diablo Glass School",
      "ancestors": [
        {
          "abbrv": null,
          "level": "City",
          "name": "Boston",
          "location_id": "60745"
        },
        {
          "abbrv": "MA",
          "level": "State",
          "name": "Massachusetts",
          "location_id": "28942"
        },
        {
          "abbrv": null,
          "level": "Country",
          "name": "United States",
          "location_id": "191"
        }
      ],
      "bearing": "south",
      "longitude": "-71.09837",
      "rating": "5.0",
      "latitude": "42.32788",
      "ranking_data": {
        "geo_location_id": "60745",
        "ranking_string": "#95 of 139 activities in Boston",
        "geo_location_name": "Boston",
        "ranking_out_of": "139",
        "ranking": "95"
      }
    },
    {
      "see_all_photos": "http://www.tripadvisor.com/LocationPhotos-g60745-d5831233-mMCID-The_Squealing_Pig_Boston-Boston_Massachusetts.html",
      "attraction_types": null,
      "web_url": "http://www.tripadvisor.com/Attraction_Review-g60745-d5831233-Reviews-mMCID-The_Squealing_Pig_Boston-Boston_Massachusetts.html",
      "percent_recommended": null,
      "location_string": "Boston, Massachusetts",
      "location_id": "5831233",
      "write_review": "http://www.tripadvisor.com/UserReview-g60745-d5831233-mMCID-The_Squealing_Pig_Boston-Boston_Massachusetts.html",
      "api_detail_url": "http://api.tripadvisor.com/api/partner/2.0/location/5831233?key=<YOUR KEY HERE>",
      "address_obj": {
        "street1": "134 Smith St",
        "street2": null,
        "city": "Boston",
        "state": "Massachusetts",
        "country": "United States",
        "postalcode": "02120",
        "address_string": "134 Smith St, Boston, MA 02120"
      },
      "wikipedia_info": null,
      "distance": ".27",
      "category": {
        "name": "attraction",
        "localized_name": "Attraction"
      },
      "awards": [],
      "subcategory": [
        {
          "name": "bars",
          "localized_name": "Bars"
        },
        {
          "name": "nightlife",
          "localized_name": "Nightlife"
        }
      ],
      "num_reviews": "1",
      "rating_image_url": "http://www.tripadvisor.com/img/cdsi/img2/ratings/traveler/3.0-MCID-5.png",
      "name": "The Squealing Pig Boston",
      "ancestors": [
        {
          "abbrv": null,
          "level": "City",
          "name": "Boston",
          "location_id": "60745"
        },
        {
          "abbrv": "MA",
          "level": "State",
          "name": "Massachusetts",
          "location_id": "28942"
        },
        {
          "abbrv": null,
          "level": "Country",
          "name": "United States",
          "location_id": "191"
        }
      ],
      "bearing": "northwest",
      "longitude": "-71.10205",
      "rating": "3.0",
      "latitude": "42.33481",
      "ranking_data": {
        "geo_location_id": "60745",
        "ranking_string": "#71 of 157 nightlife in Boston",
        "geo_location_name": "Boston",
        "ranking_out_of": "157",
        "ranking": "71"
      }
    },
    {
      "see_all_photos": "http://www.tripadvisor.com/LocationPhotos-g60745-d5842367-mMCID-Mission_Bar_Grill-Boston_Massachusetts.html",
      "attraction_types": null,
      "web_url": "http://www.tripadvisor.com/Attraction_Review-g60745-d5842367-Reviews-mMCID-Mission_Bar_Grill-Boston_Massachusetts.html",
      "percent_recommended": null,
      "location_string": "Boston, Massachusetts",
      "location_id": "5842367",
      "write_review": "http://www.tripadvisor.com/UserReview-g60745-d5842367-mMCID-Mission_Bar_Grill-Boston_Massachusetts.html",
      "api_detail_url": "http://api.tripadvisor.com/api/partner/2.0/location/5842367?key=<YOUR KEY HERE>",
      "address_obj": {
        "street1": "724 Huntington Ave",
        "street2": null,
        "city": "Boston",
        "state": "Massachusetts",
        "country": "United States",
        "postalcode": "02115-6313",
        "address_string": "724 Huntington Ave, Boston, MA 02115-6313"
      },
      "wikipedia_info": null,
      "distance": ".35",
      "category": {
        "name": "attraction",
        "localized_name": "Attraction"
      },
      "awards": [],
      "subcategory": [
        {
          "name": "bars",
          "localized_name": "Bars"
        },
        {
          "name": "nightlife",
          "localized_name": "Nightlife"
        }
      ],
      "num_reviews": "0",
      "rating_image_url": null,
      "name": "Mission Bar & Grill",
      "ancestors": [
        {
          "abbrv": null,
          "level": "City",
          "name": "Boston",
          "location_id": "60745"
        },
        {
          "abbrv": "MA",
          "level": "State",
          "name": "Massachusetts",
          "location_id": "28942"
        },
        {
          "abbrv": null,
          "level": "Country",
          "name": "United States",
          "location_id": "191"
        }
      ],
      "bearing": "northwest",
      "longitude": "-71.10514",
      "rating": null,
      "latitude": "42.33403",
      "ranking_data": null
    }
  ],
  "paging": {
    "previous": null,
    "skipped": "0",
    "results": "3",
    "next": "http://api.tripadvisor.com/api/partner/2.0/map/42.33141,-71.099396/attractions?key=<YOUR KEY HERE>&limit=3&offset=3",
    "total_results": "10"
  }
}